<?xml version="1.0" encoding="utf-8"?>
<!-- Generator: Adobe Illustrator 24.1.3, SVG Export Plug-In . SVG Version: 6.00 Build 0)  -->
<svg version="1.1" id="Layer_1" xmlns="http://www.w3.org/2000/svg" xmlns:xlink="http://www.w3.org/1999/xlink" x="0px" y="0px"
	 viewBox="0 0 22 22" style="enable-background:new 0 0 22 22;" xml:space="preserve">
<style type="text/css">
	.expand-icon-1{fill:none;stroke:#FFFFFF;stroke-miterlimit:10;}
	.expand-icon-2{fill:none;stroke:#FFFFFF;}
	.expand-icon-3{fill:#FFFFFF;}
</style>
<g id="Group_589">
	<g id="Rectangle_2121">
		<path class="expand-icon-1" d="M2,0h18c1.1,0,2,0.9,2,2v18c0,1.1-0.9,2-2,2H2c-1.1,0-2-0.9-2-2V2C0,0.9,0.9,0,2,0z"/>
		<path class="expand-icon-2" d="M3.6,0.5h14.8c1.7,0,3.1,1.4,3.1,3.1v14.8c0,1.7-1.4,3.1-3.1,3.1H3.6c-1.7,0-3.1-1.4-3.1-3.1V3.6
			C0.5,1.9,1.9,0.5,3.6,0.5z"/>
	</g>
	<path id="ios-arrow-round-back" class="expand-icon-3" d="M11.4,4.3c0,0.4-0.3,0.7-0.7,0.7H6.1l8.9,8.8c0.3,0.3,0.2,0.7-0.1,1
		c-0.3,0.2-0.7,0.2-0.9,0L5.1,6v4.6c0,0.4-0.3,0.7-0.7,0.7c-0.4,0-0.7-0.3-0.7-0.7l0,0V4.3c0-0.1,0-0.2,0-0.3c0-0.1,0.1-0.2,0.2-0.2
		C4,3.7,4.2,3.6,4.4,3.6h6.4C11.1,3.6,11.4,3.9,11.4,4.3C11.4,4.3,11.4,4.3,11.4,4.3L11.4,4.3z"/>
</g>
</svg>
