<?xml version="1.0" encoding="utf-8"?>
<!-- Generator: Adobe Illustrator 25.2.1, SVG Export Plug-In . SVG Version: 6.00 Build 0)  -->
<svg version="1.1" id="Layer_1" xmlns="http://www.w3.org/2000/svg" xmlns:xlink="http://www.w3.org/1999/xlink" x="0px" y="0px"
	 viewBox="0 0 589.6 263.7" style="enable-background:new 0 0 589.6 263.7;" xml:space="preserve">
<g>
	<path d="M169.5,117.5c1.2,0.3,2.5,0.5,3.8,0.5h0c1.5,0,2.9-0.2,4.1-0.6l38.7-12.2l39.2,12.3c1.2,0.4,2.6,0.6,4.1,0.6
		c1.3,0,2.6-0.2,3.8-0.5c2.5-0.7,4-2,4-3.4V39.9h10.7c4.3,0,7.8-1.8,7.8-3.9c0-2.2-3.5-3.9-7.8-3.9H154.3c-4.3,0-7.8,1.8-7.8,3.9
		c0,2.2,3.5,3.9,7.8,3.9h11.2V114C165.5,115.5,167.1,116.8,169.5,117.5z M181.1,39.9h70.5V107l-31.4-9.8c-1.2-0.4-2.6-0.6-4.1-0.6
		c-1.5,0-2.9,0.2-4.1,0.6l-30.9,9.8V39.9z"/>
	<path d="M425.7,54.6c4.3,0,7.8-1.8,7.8-3.9c0-2.2-3.5-3.9-7.8-3.9H396c-4.3,0-7.8,1.8-7.8,3.9c0,2.2,3.5,3.9,7.8,3.9H425.7z"/>
	<path d="M364.6,87.6c0-2.2-3.5-3.9-7.8-3.9H315c-4.3,0-7.8,1.8-7.8,3.9c0,2.2,3.5,3.9,7.8,3.9h41.8
		C361.1,91.5,364.6,89.7,364.6,87.6z"/>
	<path d="M144.8,165.4c-4.3,0-7.8,1.8-7.8,3.9c0,2.2,3.5,3.9,7.8,3.9h71.3c4.3,0,7.8-1.8,7.8-3.9c0-2.2-3.5-3.9-7.8-3.9H144.8z"/>
	<path d="M565.2,187.3l-194.4-58.7c-1.4-0.4-2.9-0.6-4.5-0.6c-1.8,0-3.6,0.3-5.1,0.8c-2.9,1-4.2,2.8-3.5,4.6l45.6,112.3
		c0.7,1.7,3.1,3,6.4,3.4c0.7,0.1,1.5,0.2,2.3,0.2c2.5,0,5-0.6,6.6-1.5l37.8-21.7l49.3,35.7c1.3,1,3.4,1.6,5.7,1.8
		c0.5,0,1,0.1,1.5,0.1c1.8,0,3.6-0.3,5.1-0.8l40.5-14.6c3.9-1.4,4.9-4.2,2.1-6.2l-49.4-35.8l52.8-10.9c3.1-0.6,5.2-2.1,5.5-3.8
		C569.7,189.8,568.1,188.2,565.2,187.3z M494.2,200.1c-2.5,0.5-4.4,1.6-5.1,2.9c-0.8,1.3-0.3,2.7,1.2,3.8l50.7,36.8L515,253
		l-50.6-36.7c-1.6-1.1-4-1.8-6.7-1.9c-0.2,0-0.3,0-0.5,0c-2.5,0-5,0.6-6.6,1.5L417,235.1l-38-93.6l161.9,48.9L494.2,200.1z"/>
	<path d="M331.5,191.9l-0.4,0h-238c-7.2,0-14.6-2.9-20.2-8c-5.9-5.3-9.1-12.5-9.1-20c0-7.6,3.2-14.7,9.1-20c5.6-5.1,12.9-8,20.2-8
		h216.6c4.3,0,7.8-1.8,7.8-3.9c0-2.2-3.5-3.9-7.8-3.9H36.2l1.9-1.3c9.4-6.8,14.6-16.3,14.6-26.7c0-10.4-5.2-19.9-14.6-26.7l-1.9-1.3
		h107.1c4.3,0,7.8-1.8,7.8-3.9c0-2.2-3.5-3.9-7.8-3.9h-13.1c-7.2,0-14.6-2.9-20.2-8c-5.9-5.3-9.1-12.5-9.1-20c0-7.6,3.2-14.7,9.1-20
		c5.6-5.1,12.9-8,20.2-8h341.3l-1.9,1.3c-9.4,6.8-14.6,16.3-14.6,26.7c0,10.4,5.2,19.9,14.6,26.7l1.9,1.3h-181
		c-4.3,0-7.8,1.8-7.8,3.9c0,2.2,3.5,3.9,7.8,3.9h87.1c7.2,0,14.6,2.9,20.2,8c5.9,5.3,9.1,12.5,9.1,20c0,0.8,0,1.7-0.1,2.6l0.1,0
		l-0.1,0.7c0,0.2-0.1,0.3-0.1,0.4c0,2.2,3.5,3.9,7.8,3.9c3.7,0,6.9-1.3,7.6-3.2l0.1-0.1c0,0,0-0.1,0-0.1l0,0c0-0.2,0.1-0.3,0.1-0.5
		c0,0,0-0.1,0-0.1l0-0.1c0.2-1.3,0.2-2.5,0.2-3.6c0-10.4-5.2-19.9-14.6-26.7l-1.9-1.3h94c4.3,0,7.8-1.8,7.8-3.9
		c0-2.2-3.5-3.9-7.8-3.9c-7.2,0-14.6-2.9-20.2-8c-5.9-5.3-9.1-12.5-9.1-20c0-7.6,3.2-14.7,9.1-20c5.6-5.1,12.9-8,20.2-8
		c4.3,0,7.8-1.8,7.8-3.9c0-2.2-3.5-3.9-7.8-3.9h-74.1C424.5,0,301.6,0,215,0c-50.8,0-79.4,0-84.9,0C112.6,0,100,9.2,99.9,9.2
		c-9.4,6.8-14.6,16.3-14.6,26.7c0,10.4,5.2,19.9,14.6,26.7l1.9,1.3h-94C3.5,64,0,65.7,0,67.9c0,2.2,3.5,3.9,7.8,3.9
		c7.2,0,14.6,2.9,20.2,8c5.9,5.3,9.1,12.5,9.1,20c0,7.6-3.2,14.7-9.1,20c-5.6,5.1-12.9,8-20.2,8c-4.3,0-7.8,1.8-7.8,3.9
		c0,2.2,3.5,3.9,7.8,3.9h56.9l-1.9,1.3c-9.4,6.8-14.6,16.3-14.6,26.7c0,9.8,4.7,18.9,13.2,25.7c8.4,6.6,19.6,10.3,31.6,10.3h238.4
		c4.3,0,7.8-1.8,7.8-3.9C339.2,193.7,335.8,191.9,331.5,191.9z"/>
	<path d="M483.2,89.4c-4.7,0-8.6,1.9-8.8,4.3l-2.2,25.5c-0.2,2.5,3.6,4.6,8.4,4.7c0.1,0,0.3,0,0.4,0c4.7,0,8.6-1.9,8.8-4.3l2.2-25.5
		c0.2-2.5-3.6-4.6-8.4-4.7C483.5,89.4,483.4,89.4,483.2,89.4z"/>
	<path d="M510.1,129.2c1.7,0.8,3.9,1.3,6.2,1.3c2.4,0,4.6-0.5,6.2-1.3l35.6-18c1.7-0.8,2.6-2,2.6-3.2c0-1.2-0.9-2.3-2.6-3.2
		c-1.7-0.8-3.9-1.3-6.2-1.3c-2.4,0-4.6,0.5-6.2,1.3l-35.6,18C506.7,124.7,506.7,127.5,510.1,129.2z"/>
	<path d="M589.6,142.8c-0.2-2.4-4-4.3-8.8-4.3c-0.1,0-0.2,0-0.3,0l-50.3,0.8c-2.4,0-4.5,0.5-6.2,1.4c-1.6,0.9-2.5,2-2.4,3.2
		c0.2,2.4,4,4.3,8.8,4.3c0.1,0,0.2,0,0.3,0l50.3-0.8c2.4,0,4.5-0.5,6.2-1.4C588.8,145.1,589.7,144,589.6,142.8z"/>
</g>
</svg>
