[
  {
    "name": "JavaScript For Impatient Programmers",
    "authorName": "Dr.Axel Rauschmayer",
    "numberOfPages": 576,
    "categoryId": "6082b360bf886e49f48197ac",
    "domainId": "60806f068262a43d3c85453f"
  },
  {
    "name": "Effective Modern C++",
    "authorName": "Scott Meyers",
    "numberOfPages": 334,
    "categoryId": "6082b3d4bf886e49f48197ae",
    "domainId": "60806f068262a43d3c85453f"
  },
  {
    "name": "High-Performance Java Persistence",
    "authorName": "Vlad Mihalcea",
    "numberOfPages": 461,
    "categoryId": "6082b3d4bf886e49f48197ae",
    "domainId": "60806f068262a43d3c85453f"
  }
]