[
  {
    "notification": {
      "key": "RESET_PASSWORD",
      "name": "Reseteaza parola",
      "enableToMain": true,
      "variables": [
        "appTitle",
        "newPassword",
        "accountLoginUrl",
        "accountForgotPasswordUrl"
      ]
    },
    "templates": [
      {
        "content": "<!DOCTYPE html>\r\n<html>\r\n  <head>\r\n    <meta charset=\"utf-8\">\r\n    <meta name=\"viewport\" content=\"width=device-width, initial-scale=1\">\r\n    <title>Biblioteca Digitala - RESETARE PAROLA <\/title>\r\n    <style type=\"text\/css\">\r\n      .text-strong {\r\n        font-weight: bold;\r\n      }\r\n      .field-name {\r\n        font-weight: bold;\r\n      }\r\n      .btn-primary {\r\n        display: inline-block;\r\n        background-color: #C00510;\r\n        color: #fff !important;\r\n        text-decoration: none;\r\n        border: 1px solid transparent;\r\n        padding: 5px 10px;\r\n        font-size: 12px;\r\n        line-height: 1.5;\r\n        white-space: nowrap;\r\n        text-align: center;\r\n        vertical-align: middle;\r\n        touch-action: manipulation;\r\n        cursor: pointer;\r\n      }\r\n      .text-uppercase {\r\n        text-transform: uppercase;\r\n      }\r\n      .text-gdpr {\r\n        font-style: italic;\r\n        font-size: 0.8em;\r\n      }\r\n      \r\n    <\/style>\r\n  <\/head>\r\n  <body>\r\n    <div id=\"content\"><\/div>\r\n    <p>Bun\u0103 ziua,<\/p>\r\n    <p>A\u021Bi primit acest mail deoarece a\u021Bi cerut resetarea parolei ! <\/p>\r\n   <p>V\u0103 rug\u0103m s\u0103 folosi\u021Bi urmatoarea parol\u0103 pentru a v\u0103 conecta newPassword<\/p>\r\n     <p>Pentru a v\u0103 conecta pute\u021Bi folosi link-ul de mai jos<\/p>\r\n     <div><a href=\"accountLoginUrl\">accountLoginUrl<\/a><\/div>\r\n       <p>Cu respect,<\/p>\r\n    <p>\r\n      <Departament>Suport Clien\u021Bi<\/Departament><br>\r\n      <Telefon><\/Telefon><a href=\"tel:0040722663180\">+40 722 663 180<\/a><a href=\"tel:0040799406388\">+40 799 406 388<\/a><br>\r\n      <Email><\/Email><a href=\"mailto:biblioteca@unitbv.ro\">biblioteca@unitbv.ro<\/a>\r\n    <\/p>\r\n    <p class=\"text-gdpr\">\r\n       V\u0103 inform\u0103m c\u0103 Biblioteca Digitala S.R.L. prelucreaz\u0103 date cu caracter personal \u00EEn temeiul Regulamentului UE nr. 679\/2016. Informa\u021Biile complete despre politica de con\uFB01den\u021Bialitate sunt disponibile pe site-ul Biblioteca Digitala, la sec\u021Biunea Privacy Policy. Preciz\u0103m c\u0103 datele dumneavoastr\u0103 cu caracter personal nu sunt utilizate \u00EEn scop de marketing dec\u00E2t dac\u0103 v-a\u021Bi exprimat deja acordul expres \u00EEn acest sens. De asemenea, va inform\u0103m c\u0103 toate contactele pe care le transmitem c\u0103tre dumneavoastr\u0103 prin intermediul Platformei Bibliotecii Digitale., nu pot fi utilizate \u00EEn scop de marketing, ele au fost colectate exclusiv cu scopul men\u021Bionat la fiecare contact \u00EEn rubrica men\u021Biuni. Pentru mai multe detalii referitoare la drepturile \u0219i obliga\u021Biile pe care le ave\u021Bi \u00EEn contextul Regulamentului UE nr. 679\/2016, v\u0103 rugam s\u0103 accesa\u021Bi rubrica GDPR din Platforma Bibliotecii Digitale. Pentru a v\u0103 exercita drepturile garantate de legea privind protec\u021Bia persoanelor cu privire la prelucrarea datelor cu caracter personal \u0219i libera circula\u021Bie a acestor date, pute\u021Bi trimite o cerere scris\u0103, datat\u0103 \u0219i semnat\u0103 la adresa Biblioteca Digitala, Str. Iuliu Maniu, nr. 41A, Bra\u0219ov, email: <a href=\"mailto:biblioteca@unitbv.ro\">biblioteca@unitbv.ro<\/a><\/p>\r\n  <\/body>\r\n<\/html>",
        "subject": "Biblioteca Digitala - RESETARE PAROLA ",
        "language": "RO",
        "isDefault": true,
        "type": "EMAIL"
      },
      {
        "content": "<!DOCTYPE html>\r\n<html>\r\n  <head>\r\n    <meta charset=\"utf-8\">\r\n    <meta name=\"viewport\" content=\"width=device-width, initial-scale=1\">\r\n    <title>Digital Library - UNCONTACTED CLIENT<\/title>\r\n    <style type=\"text\/css\">\r\n      .text-outline {\r\n        text-decoration: underline;\r\n        font-weight: bold;\r\n      }\r\n      .text-strong {\r\n        font-weight: bold;\r\n      }\r\n      .field-name {\r\n        font-weight: bold;\r\n      }\r\n      .btn-primary {\r\n        display: inline-block;\r\n        background-color: #C00510;\r\n        color: #fff !important;\r\n        text-decoration: none;\r\n        border: 1px solid transparent;\r\n        padding: 5px 10px;\r\n        font-size: 12px;\r\n        line-height: 1.5;\r\n        white-space: nowrap;\r\n        text-align: center;\r\n        vertical-align: middle;\r\n        touch-action: manipulation;\r\n        cursor: pointer;\r\n      }\r\n      .text-uppercase {\r\n        text-transform: uppercase;\r\n      }\r\n      .text-gdpr {\r\n        font-style: italic;\r\n        font-size: 0.8em;\r\n      }\r\n      \r\n    <\/style>\r\n  <\/head>\r\n  <body>\r\n    <div id=\"content\"><\/div>\r\n    <p>Hello,<\/p>\r\n    <p>You are receiving this email because you have request a password reset! <\/p>\r\n    <p>Please use the following password in order to login newPassword.<\/p>\r\n    <p>Please use the link below in order to login.<\/p>\r\n    <p>\r\n    <div><a href=\"accountLoginUrl\">accountLoginUrl<\/a><\/div>\r\n    <\/p>\r\n     <p>Best regards,<\/p>\r\n    <p>Digital Library Team<br><a href=\"https:\/\/www.dlibrary.com\">www.dlibrary.com<\/a><br><a href=\"mailto:biblioteca@unitbv.ro\">biblioteca@unitbv.ro<\/a><\/p>\r\n    <p class=\"text-gdpr\">\r\n       We hereby inform you that Digital Library processes personal data under the EU Regulation no. 679\/2016. Full privacy policy information is available on the Digital Library website under Privacy Policy. Please note that your personal data is not used for marketing purposes unless you have already expressly agreed to it. We also inform you that all the contacts we send to you via the Digital Library Clients Platform, cannot be used for marketing purposes, they were collected exclusively for the purpose mentioned at each contact in the entry. For more details on your rights and obligations in the context of EU Regulation no. 679\/2016, please access the GDPR field in the Digital Library Platform Clients. In order to exercise the rights guaranteed by the law on the protection of individuals with regard to the processing of personal data and the free circulation of such data, you may submit a written request dated and signed at Digital Library., Str. Iuliu Maniu, nr. 41A, Bra\u0219ov, email: <a href=\"mailto:biblioteca@unitbv.ro\">biblioteca@unitbv.ro<\/a><\/p>\r\n  <\/body>\r\n<\/html>",
        "subject": "Digital Library - RESET PASSWORD",
        "language": "EN",
        "type": "EMAIL"
      }
    ]
  },
  {
    "notification": {
      "key": "NOTIFY_NEW_REQUEST",
      "name":"Solicitare noua",
      "variables": [
        "appTitle",
        "customerName",
        "emails",
        "phones",
        "otherMentions",
        "requestTypes",
        "requestUrl"
      ]
    },
    "templates": [
      {
        "content": "<p>Bun\u0103&nbsp;ziua,<\/p><p>O&nbsp;nou\u0103&nbsp;solicitare&nbsp;a&nbsp;fost&nbsp;creat\u0103.&nbsp;<\/p><p>&nbsp;<\/p><p>Nume:&nbsp;customerName<\/p><p>E-mail:&nbsp;emails<\/p><p>Telefon:&nbsp;phones</p><p>Detalii:&nbsp;otherMentions</p><p>Pentru&nbsp;a&nbsp;vedea&nbsp;toate&nbsp;detaliile&nbsp;noii&nbsp;solicitari&nbsp;v\u0103&nbsp;rug\u0103m&nbsp;s\u0103&nbsp;ap\u0103sa\u021Bi&nbsp;adresa&nbsp;de&nbsp;mai&nbsp;jos (sau&nbsp;s\u0103&nbsp;naviga\u021Bi&nbsp;la&nbsp;aceast\u0103&nbsp;adres\u0103&nbsp;\u00EEn&nbsp;browser-ul&nbsp;dvs.&nbsp;preferat)<\/p><p>requestUrl<\/p><p>&nbsp;<\/p><p>Mul\u021Bumim&nbsp;!<\/p><p>Echipa&nbsp;appTitle.<\/p>",
        "subject": "Solicitare noua - requestTypes  - appTitle",
        "language": "RO",
        "isDefault": true,
        "type": "EMAIL"
      }
    ]
  },
  {
    "notification": {
      "key": "NOTIFY_EXPIRATION_BORROWED_BOOK",
      "name":"Expirare carte imprumutata",
      "enableToMain": true,
      "variables": [
        "appTitle",
        "customerName",
        "email"
      ]
    },
    "templates": [
      {
        "content": "<p>Bun\u0103&nbsp;ziua,</p><p>Dorim&nbsp;s\u0103&nbsp;v\u0103&nbsp;inform\u0103m&nbsp;c\u0103&nbsp;ave\u021bi&nbsp;acces&nbsp;la&nbsp;o&nbsp;carte,&nbsp;iar&nbsp;acest&nbsp;acces&nbsp;va&nbsp;expira&nbsp;in&nbsp;7&nbsp;zile.</p><p>&nbsp;</p><p>Mul\u021bumim</p>",
        "subject": "Expirare carte",
        "language": "RO",
        "isDefault": true,
        "type": "EMAIL"
      }
    ]
  }
]